%YAML 1.1
%TAG !u! tag:unity3d.com,2011:
--- !u!1 &8709764481346631913
GameObject:
  m_ObjectHideFlags: 0
  m_CorrespondingSourceObject: {fileID: 0}
  m_PrefabInstance: {fileID: 0}
  m_PrefabAsset: {fileID: 0}
  serializedVersion: 6
  m_Component:
  - component: {fileID: 7115561593934465371}
  m_Layer: 0
  m_Name: Huggy_Wuggy
  m_TagString: Untagged
  m_Icon: {fileID: 0}
  m_NavMeshLayer: 0
  m_StaticEditorFlags: 0
  m_IsActive: 1
--- !u!4 &7115561593934465371
Transform:
  m_ObjectHideFlags: 0
  m_CorrespondingSourceObject: {fileID: 0}
  m_PrefabInstance: {fileID: 0}
  m_PrefabAsset: {fileID: 0}
  m_GameObject: {fileID: 8709764481346631913}
  m_LocalRotation: {x: 0, y: 0, z: 0, w: 1}
  m_LocalPosition: {x: 0, y: 0, z: 0}
  m_LocalScale: {x: 1, y: 1, z: 1}
  m_Children:
  - {fileID: 4730556846875276636}
  m_Father: {fileID: 0}
  m_RootOrder: 0
  m_LocalEulerAnglesHint: {x: 0, y: 0, z: 0}
--- !u!1001 &5056672796713128631
PrefabInstance:
  m_ObjectHideFlags: 0
  serializedVersion: 2
  m_Modification:
    m_TransformParent: {fileID: 7115561593934465371}
    m_Modifications:
    - target: {fileID: -8679921383154817045, guid: e34dbed282bcb0f4c8895e6e2bc7b8a4, type: 3}
      propertyPath: m_RootOrder
      value: 0
      objectReference: {fileID: 0}
    - target: {fileID: -8679921383154817045, guid: e34dbed282bcb0f4c8895e6e2bc7b8a4, type: 3}
      propertyPath: m_LocalPosition.x
      value: 0
      objectReference: {fileID: 0}
    - target: {fileID: -8679921383154817045, guid: e34dbed282bcb0f4c8895e6e2bc7b8a4, type: 3}
      propertyPath: m_LocalPosition.y
      value: 0
      objectReference: {fileID: 0}
    - target: {fileID: -8679921383154817045, guid: e34dbed282bcb0f4c8895e6e2bc7b8a4, type: 3}
      propertyPath: m_LocalPosition.z
      value: 0
      objectReference: {fileID: 0}
    - target: {fileID: -8679921383154817045, guid: e34dbed282bcb0f4c8895e6e2bc7b8a4, type: 3}
      propertyPath: m_LocalRotation.w
      value: 1
      objectReference: {fileID: 0}
    - target: {fileID: -8679921383154817045, guid: e34dbed282bcb0f4c8895e6e2bc7b8a4, type: 3}
      propertyPath: m_LocalRotation.x
      value: 0
      objectReference: {fileID: 0}
    - target: {fileID: -8679921383154817045, guid: e34dbed282bcb0f4c8895e6e2bc7b8a4, type: 3}
      propertyPath: m_LocalRotation.y
      value: 0
      objectReference: {fileID: 0}
    - target: {fileID: -8679921383154817045, guid: e34dbed282bcb0f4c8895e6e2bc7b8a4, type: 3}
      propertyPath: m_LocalRotation.z
      value: 0
      objectReference: {fileID: 0}
    - target: {fileID: -8679921383154817045, guid: e34dbed282bcb0f4c8895e6e2bc7b8a4, type: 3}
      propertyPath: m_LocalEulerAnglesHint.x
      value: 0
      objectReference: {fileID: 0}
    - target: {fileID: -8679921383154817045, guid: e34dbed282bcb0f4c8895e6e2bc7b8a4, type: 3}
      propertyPath: m_LocalEulerAnglesHint.y
      value: 0
      objectReference: {fileID: 0}
    - target: {fileID: -8679921383154817045, guid: e34dbed282bcb0f4c8895e6e2bc7b8a4, type: 3}
      propertyPath: m_LocalEulerAnglesHint.z
      value: 0
      objectReference: {fileID: 0}
    - target: {fileID: -7986788805118551946, guid: e34dbed282bcb0f4c8895e6e2bc7b8a4, type: 3}
      propertyPath: m_Materials.Array.data[0]
      value: 
      objectReference: {fileID: 2100000, guid: bb552d8fcc9de154f85a3c0ad35f758c, type: 2}
    - target: {fileID: -6680459537721083940, guid: e34dbed282bcb0f4c8895e6e2bc7b8a4, type: 3}
      propertyPath: m_LocalPosition.x
      value: 0
      objectReference: {fileID: 0}
    - target: {fileID: -6680459537721083940, guid: e34dbed282bcb0f4c8895e6e2bc7b8a4, type: 3}
      propertyPath: m_LocalRotation.y
      value: 0
      objectReference: {fileID: 0}
    - target: {fileID: -6680459537721083940, guid: e34dbed282bcb0f4c8895e6e2bc7b8a4, type: 3}
      propertyPath: m_LocalRotation.z
      value: 0
      objectReference: {fileID: 0}
    - target: {fileID: -5469272564267143731, guid: e34dbed282bcb0f4c8895e6e2bc7b8a4, type: 3}
      propertyPath: m_LocalPosition.x
      value: 0
      objectReference: {fileID: 0}
    - target: {fileID: -5469272564267143731, guid: e34dbed282bcb0f4c8895e6e2bc7b8a4, type: 3}
      propertyPath: m_LocalRotation.y
      value: 0
      objectReference: {fileID: 0}
    - target: {fileID: -5469272564267143731, guid: e34dbed282bcb0f4c8895e6e2bc7b8a4, type: 3}
      propertyPath: m_LocalRotation.z
      value: 0
      objectReference: {fileID: 0}
    - target: {fileID: 919132149155446097, guid: e34dbed282bcb0f4c8895e6e2bc7b8a4, type: 3}
      propertyPath: m_Name
      value: Huggy_Wuggy_01
      objectReference: {fileID: 0}
    - target: {fileID: 2586788226319762440, guid: e34dbed282bcb0f4c8895e6e2bc7b8a4, type: 3}
      propertyPath: m_Materials.Array.data[0]
      value: 
      objectReference: {fileID: 2100000, guid: 24e9dc5fa81ee9943a6c4c99a81b2d88, type: 2}
    - target: {fileID: 4113969158403111424, guid: e34dbed282bcb0f4c8895e6e2bc7b8a4, type: 3}
      propertyPath: m_LocalPosition.x
      value: 0
      objectReference: {fileID: 0}
    - target: {fileID: 4113969158403111424, guid: e34dbed282bcb0f4c8895e6e2bc7b8a4, type: 3}
      propertyPath: m_LocalRotation.y
      value: 0
      objectReference: {fileID: 0}
    - target: {fileID: 4113969158403111424, guid: e34dbed282bcb0f4c8895e6e2bc7b8a4, type: 3}
      propertyPath: m_LocalRotation.z
      value: 0
      objectReference: {fileID: 0}
    - target: {fileID: 7060553386485125150, guid: e34dbed282bcb0f4c8895e6e2bc7b8a4, type: 3}
      propertyPath: m_Materials.Array.data[0]
      value: 
      objectReference: {fileID: 2100000, guid: 23ed3b8b27673774e8494edd18bcc991, type: 2}
    - target: {fileID: 7600602085598103505, guid: e34dbed282bcb0f4c8895e6e2bc7b8a4, type: 3}
      propertyPath: m_Materials.Array.data[0]
      value: 
      objectReference: {fileID: 2100000, guid: bb552d8fcc9de154f85a3c0ad35f758c, type: 2}
    - target: {fileID: 8771288580998147850, guid: e34dbed282bcb0f4c8895e6e2bc7b8a4, type: 3}
      propertyPath: m_LocalPosition.x
      value: 0
      objectReference: {fileID: 0}
    - target: {fileID: 8771288580998147850, guid: e34dbed282bcb0f4c8895e6e2bc7b8a4, type: 3}
      propertyPath: m_LocalRotation.y
      value: 0
      objectReference: {fileID: 0}
    - target: {fileID: 8771288580998147850, guid: e34dbed282bcb0f4c8895e6e2bc7b8a4, type: 3}
      propertyPath: m_LocalRotation.z
      value: 0
      objectReference: {fileID: 0}
    m_RemovedComponents: []
  m_SourcePrefab: {fileID: 100100000, guid: e34dbed282bcb0f4c8895e6e2bc7b8a4, type: 3}
--- !u!4 &4730556846875276636 stripped
Transform:
  m_CorrespondingSourceObject: {fileID: -8679921383154817045, guid: e34dbed282bcb0f4c8895e6e2bc7b8a4, type: 3}
  m_PrefabInstance: {fileID: 5056672796713128631}
  m_PrefabAsset: {fileID: 0}
