%YAML 1.1
%TAG !u! tag:unity3d.com,2011:
--- !u!1 &5544287889586441849
GameObject:
  m_ObjectHideFlags: 0
  m_CorrespondingSourceObject: {fileID: 0}
  m_PrefabInstance: {fileID: 0}
  m_PrefabAsset: {fileID: 0}
  serializedVersion: 6
  m_Component:
  - component: {fileID: 7755109238214460745}
  m_Layer: 0
  m_Name: Pick01
  m_TagString: Untagged
  m_Icon: {fileID: 0}
  m_NavMeshLayer: 0
  m_StaticEditorFlags: 0
  m_IsActive: 1
--- !u!4 &7755109238214460745
Transform:
  m_ObjectHideFlags: 0
  m_CorrespondingSourceObject: {fileID: 0}
  m_PrefabInstance: {fileID: 0}
  m_PrefabAsset: {fileID: 0}
  m_GameObject: {fileID: 5544287889586441849}
  m_LocalRotation: {x: 0, y: 0, z: 0, w: 1}
  m_LocalPosition: {x: 0, y: 0, z: 0}
  m_LocalScale: {x: 1, y: 1, z: 1}
  m_Children:
  - {fileID: 21070511922856133}
  m_Father: {fileID: 0}
  m_RootOrder: 0
  m_LocalEulerAnglesHint: {x: 0, y: 0, z: 0}
--- !u!1001 &558555178145982254
PrefabInstance:
  m_ObjectHideFlags: 0
  serializedVersion: 2
  m_Modification:
    m_TransformParent: {fileID: 7755109238214460745}
    m_Modifications:
    - target: {fileID: -8679921383154817045, guid: 168d7fdf801724f7db88944c333644ae, type: 3}
      propertyPath: m_RootOrder
      value: 0
      objectReference: {fileID: 0}
    - target: {fileID: -8679921383154817045, guid: 168d7fdf801724f7db88944c333644ae, type: 3}
      propertyPath: m_LocalPosition.x
      value: 0
      objectReference: {fileID: 0}
    - target: {fileID: -8679921383154817045, guid: 168d7fdf801724f7db88944c333644ae, type: 3}
      propertyPath: m_LocalPosition.y
      value: 0
      objectReference: {fileID: 0}
    - target: {fileID: -8679921383154817045, guid: 168d7fdf801724f7db88944c333644ae, type: 3}
      propertyPath: m_LocalPosition.z
      value: 0
      objectReference: {fileID: 0}
    - target: {fileID: -8679921383154817045, guid: 168d7fdf801724f7db88944c333644ae, type: 3}
      propertyPath: m_LocalRotation.w
      value: 1
      objectReference: {fileID: 0}
    - target: {fileID: -8679921383154817045, guid: 168d7fdf801724f7db88944c333644ae, type: 3}
      propertyPath: m_LocalRotation.x
      value: -0
      objectReference: {fileID: 0}
    - target: {fileID: -8679921383154817045, guid: 168d7fdf801724f7db88944c333644ae, type: 3}
      propertyPath: m_LocalRotation.y
      value: -0
      objectReference: {fileID: 0}
    - target: {fileID: -8679921383154817045, guid: 168d7fdf801724f7db88944c333644ae, type: 3}
      propertyPath: m_LocalRotation.z
      value: -0
      objectReference: {fileID: 0}
    - target: {fileID: -8679921383154817045, guid: 168d7fdf801724f7db88944c333644ae, type: 3}
      propertyPath: m_LocalEulerAnglesHint.x
      value: 0
      objectReference: {fileID: 0}
    - target: {fileID: -8679921383154817045, guid: 168d7fdf801724f7db88944c333644ae, type: 3}
      propertyPath: m_LocalEulerAnglesHint.y
      value: 0
      objectReference: {fileID: 0}
    - target: {fileID: -8679921383154817045, guid: 168d7fdf801724f7db88944c333644ae, type: 3}
      propertyPath: m_LocalEulerAnglesHint.z
      value: 0
      objectReference: {fileID: 0}
    - target: {fileID: -7511558181221131132, guid: 168d7fdf801724f7db88944c333644ae, type: 3}
      propertyPath: m_Materials.Array.data[0]
      value: 
      objectReference: {fileID: 2100000, guid: bca78b03a23be48c88c7beded1dbc9a8, type: 2}
    - target: {fileID: -7511558181221131132, guid: 168d7fdf801724f7db88944c333644ae, type: 3}
      propertyPath: m_Materials.Array.data[1]
      value: 
      objectReference: {fileID: 2100000, guid: 9d82807d3e8f44403bd0ed98d211934e, type: 2}
    - target: {fileID: -6652725513331149018, guid: 168d7fdf801724f7db88944c333644ae, type: 3}
      propertyPath: m_Materials.Array.size
      value: 1
      objectReference: {fileID: 0}
    - target: {fileID: -6652725513331149018, guid: 168d7fdf801724f7db88944c333644ae, type: 3}
      propertyPath: m_Materials.Array.data[0]
      value: 
      objectReference: {fileID: 2100000, guid: 86ad4ecddaacf4532a83319846bd2285, type: 2}
    - target: {fileID: -6652725513331149018, guid: 168d7fdf801724f7db88944c333644ae, type: 3}
      propertyPath: m_Materials.Array.data[1]
      value: 
      objectReference: {fileID: 2100000, guid: a4e609856a82a477981f07d4bd069912, type: 2}
    - target: {fileID: -6652725513331149018, guid: 168d7fdf801724f7db88944c333644ae, type: 3}
      propertyPath: m_Materials.Array.data[2]
      value: 
      objectReference: {fileID: 2100000, guid: a4e609856a82a477981f07d4bd069912, type: 2}
    - target: {fileID: -6652725513331149018, guid: 168d7fdf801724f7db88944c333644ae, type: 3}
      propertyPath: m_Materials.Array.data[3]
      value: 
      objectReference: {fileID: 2100000, guid: a4e609856a82a477981f07d4bd069912, type: 2}
    - target: {fileID: -6652725513331149018, guid: 168d7fdf801724f7db88944c333644ae, type: 3}
      propertyPath: m_Materials.Array.data[4]
      value: 
      objectReference: {fileID: 2100000, guid: a4e609856a82a477981f07d4bd069912, type: 2}
    - target: {fileID: -6652725513331149018, guid: 168d7fdf801724f7db88944c333644ae, type: 3}
      propertyPath: m_Materials.Array.data[5]
      value: 
      objectReference: {fileID: 2100000, guid: a4e609856a82a477981f07d4bd069912, type: 2}
    - target: {fileID: -6652725513331149018, guid: 168d7fdf801724f7db88944c333644ae, type: 3}
      propertyPath: m_Materials.Array.data[6]
      value: 
      objectReference: {fileID: 2100000, guid: a4e609856a82a477981f07d4bd069912, type: 2}
    - target: {fileID: -6652725513331149018, guid: 168d7fdf801724f7db88944c333644ae, type: 3}
      propertyPath: m_Materials.Array.data[7]
      value: 
      objectReference: {fileID: 2100000, guid: a4e609856a82a477981f07d4bd069912, type: 2}
    - target: {fileID: -6652725513331149018, guid: 168d7fdf801724f7db88944c333644ae, type: 3}
      propertyPath: m_Materials.Array.data[8]
      value: 
      objectReference: {fileID: 2100000, guid: a4e609856a82a477981f07d4bd069912, type: 2}
    - target: {fileID: -6652725513331149018, guid: 168d7fdf801724f7db88944c333644ae, type: 3}
      propertyPath: m_Materials.Array.data[9]
      value: 
      objectReference: {fileID: 2100000, guid: a4e609856a82a477981f07d4bd069912, type: 2}
    - target: {fileID: -6652725513331149018, guid: 168d7fdf801724f7db88944c333644ae, type: 3}
      propertyPath: m_Materials.Array.data[10]
      value: 
      objectReference: {fileID: 2100000, guid: a4e609856a82a477981f07d4bd069912, type: 2}
    - target: {fileID: -6652725513331149018, guid: 168d7fdf801724f7db88944c333644ae, type: 3}
      propertyPath: m_Materials.Array.data[11]
      value: 
      objectReference: {fileID: 2100000, guid: a4e609856a82a477981f07d4bd069912, type: 2}
    - target: {fileID: -6652725513331149018, guid: 168d7fdf801724f7db88944c333644ae, type: 3}
      propertyPath: m_Materials.Array.data[12]
      value: 
      objectReference: {fileID: 2100000, guid: a4e609856a82a477981f07d4bd069912, type: 2}
    - target: {fileID: -6652725513331149018, guid: 168d7fdf801724f7db88944c333644ae, type: 3}
      propertyPath: m_Materials.Array.data[13]
      value: 
      objectReference: {fileID: 2100000, guid: a4e609856a82a477981f07d4bd069912, type: 2}
    - target: {fileID: -6652725513331149018, guid: 168d7fdf801724f7db88944c333644ae, type: 3}
      propertyPath: m_Materials.Array.data[14]
      value: 
      objectReference: {fileID: 2100000, guid: a4e609856a82a477981f07d4bd069912, type: 2}
    - target: {fileID: -6652725513331149018, guid: 168d7fdf801724f7db88944c333644ae, type: 3}
      propertyPath: m_Materials.Array.data[15]
      value: 
      objectReference: {fileID: 2100000, guid: a4e609856a82a477981f07d4bd069912, type: 2}
    - target: {fileID: -6652725513331149018, guid: 168d7fdf801724f7db88944c333644ae, type: 3}
      propertyPath: m_Materials.Array.data[16]
      value: 
      objectReference: {fileID: 2100000, guid: a4e609856a82a477981f07d4bd069912, type: 2}
    - target: {fileID: -6652725513331149018, guid: 168d7fdf801724f7db88944c333644ae, type: 3}
      propertyPath: m_Materials.Array.data[17]
      value: 
      objectReference: {fileID: 2100000, guid: a4e609856a82a477981f07d4bd069912, type: 2}
    - target: {fileID: -6652725513331149018, guid: 168d7fdf801724f7db88944c333644ae, type: 3}
      propertyPath: m_Materials.Array.data[18]
      value: 
      objectReference: {fileID: 2100000, guid: a4e609856a82a477981f07d4bd069912, type: 2}
    - target: {fileID: -6652725513331149018, guid: 168d7fdf801724f7db88944c333644ae, type: 3}
      propertyPath: m_Materials.Array.data[19]
      value: 
      objectReference: {fileID: 2100000, guid: a4e609856a82a477981f07d4bd069912, type: 2}
    - target: {fileID: -6652725513331149018, guid: 168d7fdf801724f7db88944c333644ae, type: 3}
      propertyPath: m_Materials.Array.data[20]
      value: 
      objectReference: {fileID: 2100000, guid: a4e609856a82a477981f07d4bd069912, type: 2}
    - target: {fileID: 919132149155446097, guid: 168d7fdf801724f7db88944c333644ae, type: 3}
      propertyPath: m_Name
      value: Pick_01
      objectReference: {fileID: 0}
    - target: {fileID: 1588066396962892842, guid: 168d7fdf801724f7db88944c333644ae, type: 3}
      propertyPath: m_Materials.Array.size
      value: 1
      objectReference: {fileID: 0}
    - target: {fileID: 1588066396962892842, guid: 168d7fdf801724f7db88944c333644ae, type: 3}
      propertyPath: m_Materials.Array.data[0]
      value: 
      objectReference: {fileID: 2100000, guid: a4e609856a82a477981f07d4bd069912, type: 2}
    - target: {fileID: 1588066396962892842, guid: 168d7fdf801724f7db88944c333644ae, type: 3}
      propertyPath: m_Materials.Array.data[1]
      value: 
      objectReference: {fileID: 2100000, guid: a4e609856a82a477981f07d4bd069912, type: 2}
    - target: {fileID: 1588066396962892842, guid: 168d7fdf801724f7db88944c333644ae, type: 3}
      propertyPath: m_Materials.Array.data[2]
      value: 
      objectReference: {fileID: 2100000, guid: a4e609856a82a477981f07d4bd069912, type: 2}
    - target: {fileID: 1588066396962892842, guid: 168d7fdf801724f7db88944c333644ae, type: 3}
      propertyPath: m_Materials.Array.data[3]
      value: 
      objectReference: {fileID: 2100000, guid: a4e609856a82a477981f07d4bd069912, type: 2}
    - target: {fileID: 1588066396962892842, guid: 168d7fdf801724f7db88944c333644ae, type: 3}
      propertyPath: m_Materials.Array.data[4]
      value: 
      objectReference: {fileID: 2100000, guid: a4e609856a82a477981f07d4bd069912, type: 2}
    - target: {fileID: 1588066396962892842, guid: 168d7fdf801724f7db88944c333644ae, type: 3}
      propertyPath: m_Materials.Array.data[5]
      value: 
      objectReference: {fileID: 2100000, guid: a4e609856a82a477981f07d4bd069912, type: 2}
    - target: {fileID: 1588066396962892842, guid: 168d7fdf801724f7db88944c333644ae, type: 3}
      propertyPath: m_Materials.Array.data[6]
      value: 
      objectReference: {fileID: 2100000, guid: a4e609856a82a477981f07d4bd069912, type: 2}
    - target: {fileID: 1588066396962892842, guid: 168d7fdf801724f7db88944c333644ae, type: 3}
      propertyPath: m_Materials.Array.data[7]
      value: 
      objectReference: {fileID: 2100000, guid: a4e609856a82a477981f07d4bd069912, type: 2}
    - target: {fileID: 1588066396962892842, guid: 168d7fdf801724f7db88944c333644ae, type: 3}
      propertyPath: m_Materials.Array.data[8]
      value: 
      objectReference: {fileID: 2100000, guid: a4e609856a82a477981f07d4bd069912, type: 2}
    - target: {fileID: 1588066396962892842, guid: 168d7fdf801724f7db88944c333644ae, type: 3}
      propertyPath: m_Materials.Array.data[9]
      value: 
      objectReference: {fileID: 2100000, guid: a4e609856a82a477981f07d4bd069912, type: 2}
    - target: {fileID: 1588066396962892842, guid: 168d7fdf801724f7db88944c333644ae, type: 3}
      propertyPath: m_Materials.Array.data[10]
      value: 
      objectReference: {fileID: 2100000, guid: a4e609856a82a477981f07d4bd069912, type: 2}
    - target: {fileID: 1588066396962892842, guid: 168d7fdf801724f7db88944c333644ae, type: 3}
      propertyPath: m_Materials.Array.data[11]
      value: 
      objectReference: {fileID: 2100000, guid: a4e609856a82a477981f07d4bd069912, type: 2}
    - target: {fileID: 1588066396962892842, guid: 168d7fdf801724f7db88944c333644ae, type: 3}
      propertyPath: m_Materials.Array.data[12]
      value: 
      objectReference: {fileID: 2100000, guid: a4e609856a82a477981f07d4bd069912, type: 2}
    - target: {fileID: 1588066396962892842, guid: 168d7fdf801724f7db88944c333644ae, type: 3}
      propertyPath: m_Materials.Array.data[13]
      value: 
      objectReference: {fileID: 2100000, guid: a4e609856a82a477981f07d4bd069912, type: 2}
    - target: {fileID: 1588066396962892842, guid: 168d7fdf801724f7db88944c333644ae, type: 3}
      propertyPath: m_Materials.Array.data[14]
      value: 
      objectReference: {fileID: 2100000, guid: a4e609856a82a477981f07d4bd069912, type: 2}
    - target: {fileID: 1588066396962892842, guid: 168d7fdf801724f7db88944c333644ae, type: 3}
      propertyPath: m_Materials.Array.data[15]
      value: 
      objectReference: {fileID: 2100000, guid: a4e609856a82a477981f07d4bd069912, type: 2}
    - target: {fileID: 1588066396962892842, guid: 168d7fdf801724f7db88944c333644ae, type: 3}
      propertyPath: m_Materials.Array.data[16]
      value: 
      objectReference: {fileID: 2100000, guid: a4e609856a82a477981f07d4bd069912, type: 2}
    - target: {fileID: 1588066396962892842, guid: 168d7fdf801724f7db88944c333644ae, type: 3}
      propertyPath: m_Materials.Array.data[17]
      value: 
      objectReference: {fileID: 2100000, guid: a4e609856a82a477981f07d4bd069912, type: 2}
    - target: {fileID: 1588066396962892842, guid: 168d7fdf801724f7db88944c333644ae, type: 3}
      propertyPath: m_Materials.Array.data[18]
      value: 
      objectReference: {fileID: 2100000, guid: a4e609856a82a477981f07d4bd069912, type: 2}
    - target: {fileID: 1588066396962892842, guid: 168d7fdf801724f7db88944c333644ae, type: 3}
      propertyPath: m_Materials.Array.data[19]
      value: 
      objectReference: {fileID: 2100000, guid: a4e609856a82a477981f07d4bd069912, type: 2}
    - target: {fileID: 1588066396962892842, guid: 168d7fdf801724f7db88944c333644ae, type: 3}
      propertyPath: m_Materials.Array.data[20]
      value: 
      objectReference: {fileID: 2100000, guid: a4e609856a82a477981f07d4bd069912, type: 2}
    - target: {fileID: 6344783213512698267, guid: 168d7fdf801724f7db88944c333644ae, type: 3}
      propertyPath: m_Materials.Array.size
      value: 1
      objectReference: {fileID: 0}
    - target: {fileID: 6344783213512698267, guid: 168d7fdf801724f7db88944c333644ae, type: 3}
      propertyPath: m_Materials.Array.data[0]
      value: 
      objectReference: {fileID: 2100000, guid: a4e609856a82a477981f07d4bd069912, type: 2}
    - target: {fileID: 6344783213512698267, guid: 168d7fdf801724f7db88944c333644ae, type: 3}
      propertyPath: m_Materials.Array.data[1]
      value: 
      objectReference: {fileID: 2100000, guid: a4e609856a82a477981f07d4bd069912, type: 2}
    - target: {fileID: 6344783213512698267, guid: 168d7fdf801724f7db88944c333644ae, type: 3}
      propertyPath: m_Materials.Array.data[2]
      value: 
      objectReference: {fileID: 2100000, guid: a4e609856a82a477981f07d4bd069912, type: 2}
    - target: {fileID: 6344783213512698267, guid: 168d7fdf801724f7db88944c333644ae, type: 3}
      propertyPath: m_Materials.Array.data[3]
      value: 
      objectReference: {fileID: 2100000, guid: a4e609856a82a477981f07d4bd069912, type: 2}
    - target: {fileID: 6344783213512698267, guid: 168d7fdf801724f7db88944c333644ae, type: 3}
      propertyPath: m_Materials.Array.data[4]
      value: 
      objectReference: {fileID: 2100000, guid: a4e609856a82a477981f07d4bd069912, type: 2}
    - target: {fileID: 6344783213512698267, guid: 168d7fdf801724f7db88944c333644ae, type: 3}
      propertyPath: m_Materials.Array.data[5]
      value: 
      objectReference: {fileID: 2100000, guid: a4e609856a82a477981f07d4bd069912, type: 2}
    - target: {fileID: 6344783213512698267, guid: 168d7fdf801724f7db88944c333644ae, type: 3}
      propertyPath: m_Materials.Array.data[6]
      value: 
      objectReference: {fileID: 2100000, guid: a4e609856a82a477981f07d4bd069912, type: 2}
    - target: {fileID: 6344783213512698267, guid: 168d7fdf801724f7db88944c333644ae, type: 3}
      propertyPath: m_Materials.Array.data[7]
      value: 
      objectReference: {fileID: 2100000, guid: a4e609856a82a477981f07d4bd069912, type: 2}
    - target: {fileID: 6344783213512698267, guid: 168d7fdf801724f7db88944c333644ae, type: 3}
      propertyPath: m_Materials.Array.data[8]
      value: 
      objectReference: {fileID: 2100000, guid: a4e609856a82a477981f07d4bd069912, type: 2}
    - target: {fileID: 6344783213512698267, guid: 168d7fdf801724f7db88944c333644ae, type: 3}
      propertyPath: m_Materials.Array.data[9]
      value: 
      objectReference: {fileID: 2100000, guid: a4e609856a82a477981f07d4bd069912, type: 2}
    - target: {fileID: 6344783213512698267, guid: 168d7fdf801724f7db88944c333644ae, type: 3}
      propertyPath: m_Materials.Array.data[10]
      value: 
      objectReference: {fileID: 2100000, guid: a4e609856a82a477981f07d4bd069912, type: 2}
    - target: {fileID: 6344783213512698267, guid: 168d7fdf801724f7db88944c333644ae, type: 3}
      propertyPath: m_Materials.Array.data[11]
      value: 
      objectReference: {fileID: 2100000, guid: a4e609856a82a477981f07d4bd069912, type: 2}
    - target: {fileID: 6344783213512698267, guid: 168d7fdf801724f7db88944c333644ae, type: 3}
      propertyPath: m_Materials.Array.data[12]
      value: 
      objectReference: {fileID: 2100000, guid: a4e609856a82a477981f07d4bd069912, type: 2}
    - target: {fileID: 6344783213512698267, guid: 168d7fdf801724f7db88944c333644ae, type: 3}
      propertyPath: m_Materials.Array.data[13]
      value: 
      objectReference: {fileID: 2100000, guid: a4e609856a82a477981f07d4bd069912, type: 2}
    - target: {fileID: 6344783213512698267, guid: 168d7fdf801724f7db88944c333644ae, type: 3}
      propertyPath: m_Materials.Array.data[14]
      value: 
      objectReference: {fileID: 2100000, guid: a4e609856a82a477981f07d4bd069912, type: 2}
    - target: {fileID: 6344783213512698267, guid: 168d7fdf801724f7db88944c333644ae, type: 3}
      propertyPath: m_Materials.Array.data[15]
      value: 
      objectReference: {fileID: 2100000, guid: a4e609856a82a477981f07d4bd069912, type: 2}
    - target: {fileID: 6344783213512698267, guid: 168d7fdf801724f7db88944c333644ae, type: 3}
      propertyPath: m_Materials.Array.data[16]
      value: 
      objectReference: {fileID: 2100000, guid: a4e609856a82a477981f07d4bd069912, type: 2}
    - target: {fileID: 6344783213512698267, guid: 168d7fdf801724f7db88944c333644ae, type: 3}
      propertyPath: m_Materials.Array.data[17]
      value: 
      objectReference: {fileID: 2100000, guid: a4e609856a82a477981f07d4bd069912, type: 2}
    - target: {fileID: 6344783213512698267, guid: 168d7fdf801724f7db88944c333644ae, type: 3}
      propertyPath: m_Materials.Array.data[18]
      value: 
      objectReference: {fileID: 2100000, guid: a4e609856a82a477981f07d4bd069912, type: 2}
    - target: {fileID: 6344783213512698267, guid: 168d7fdf801724f7db88944c333644ae, type: 3}
      propertyPath: m_Materials.Array.data[19]
      value: 
      objectReference: {fileID: 2100000, guid: a4e609856a82a477981f07d4bd069912, type: 2}
    - target: {fileID: 6344783213512698267, guid: 168d7fdf801724f7db88944c333644ae, type: 3}
      propertyPath: m_Materials.Array.data[20]
      value: 
      objectReference: {fileID: 2100000, guid: a4e609856a82a477981f07d4bd069912, type: 2}
    m_RemovedComponents: []
  m_SourcePrefab: {fileID: 100100000, guid: 168d7fdf801724f7db88944c333644ae, type: 3}
--- !u!4 &21070511922856133 stripped
Transform:
  m_CorrespondingSourceObject: {fileID: -8679921383154817045, guid: 168d7fdf801724f7db88944c333644ae, type: 3}
  m_PrefabInstance: {fileID: 558555178145982254}
  m_PrefabAsset: {fileID: 0}
